{
	"test": {
		"psw": "123",
		"name": "王小明",
		"Ethereum": "0x9d8c4444e7ba23668875089a510366bc34904f7c"
	},
	"nccu": {
		"psw": "123",
		"name": "王小華",
		"Ethereum": "0x5c1395b699af47c512860448714df17099eea6c4"
	},
	"hi": {
		"psw": "123",
		"name": "陳小明",
		"Ethereum": "0x2cfd6bc7095e6960468c3d1935f0de4fc1390010"
	},
	"apple": {
		"psw": "12345",
		"name": "陳小華",
		"Ethereum": "0x456ea802fcb2140c5395689fdd350acd6c98d553"
	},
	"test123": {
		"psw": "123",
		"name": "測試",
		"Ethereum": "0x66645a478ce44b7591ff7e3116d3bf1385a804f4"
	}
}